,date,city,rent,product
0,2022-01-01,Düzce,9,1324
1,2022-01-02,Yalova,16,1392
2,2022-01-03,Erzurum,10,1404
3,2022-01-04,Kırşehir,5,1830
4,2022-01-05,Bartın,5,1008
5,2022-01-06,Manisa,1,1123
6,2022-01-07,Konya,14,1396
7,2022-01-08,Afyon,3,1109
8,2022-01-09,Afyon,13,1618
9,2022-01-10,Afyon,7,1917
10,2022-01-11,Edirne,1,1188
11,2022-01-12,Kütahya,3,1903
12,2022-01-13,Siirt,3,1550
13,2022-01-14,Bayburt,12,1961
14,2022-01-15,Şanlıurfa,2,1436
15,2022-01-16,Niğde,5,1981
16,2022-01-17,Rize,15,1047
17,2022-01-18,Sakarya,2,1876
18,2022-01-19,Adıyaman,17,1757
19,2022-01-20,Tokat,1,1627
20,2022-01-21,Kastamonu,11,1049
21,2022-01-22,Sakarya,2,1605
22,2022-01-23,Kilis,7,1189
23,2022-01-24,Denizli,9,1283
24,2022-01-25,Burdur,3,1598
25,2022-01-26,Çankırı,3,1171
26,2022-01-27,Sivas,9,1864
27,2022-01-28,Karabük,5,1680
28,2022-01-29,Bayburt,6,1201
29,2022-01-30,Çorum,16,1567
30,2022-01-31,Konya,9,1388
31,2022-02-01,Burdur,8,1207
32,2022-02-02,Bursa,3,1635
33,2022-02-03,Kocaeli,10,1383
34,2022-02-04,Erzincan,16,1113
35,2022-02-05,Siirt,15,1664
36,2022-02-06,Niğde,1,1546
37,2022-02-07,Gümüşhane,7,1079
38,2022-02-08,Yozgat,2,1804
39,2022-02-09,Rize,8,1867
40,2022-02-10,Tokat,17,1448
41,2022-02-11,Düzce,15,1481
42,2022-02-12,Isparta,5,1338
43,2022-02-13,Ardahan,17,1677
44,2022-02-14,Kayseri,16,1090
45,2022-02-15,Rize,16,1436
46,2022-02-16,Bursa,11,1038
47,2022-02-17,Nevşehir,16,1791
48,2022-02-18,Giresun,2,1623
49,2022-02-19,Ordu,15,1827
50,2022-02-20,Kastamonu,15,1779
51,2022-02-21,Bursa,9,1095
52,2022-02-22,Artvin,3,1975
53,2022-02-23,Antalya,14,1461
54,2022-02-24,Sakarya,6,1632
55,2022-02-25,Osmaniye,10,1371
56,2022-02-26,Osmaniye,13,1552
57,2022-02-27,Ağrı,3,1617
58,2022-02-28,Batman,3,1780
59,2022-03-01,Kocaeli,14,1819
60,2022-03-02,İzmir,4,1284
61,2022-03-03,Tunceli,13,1604
62,2022-03-04,Kayseri,11,1322
63,2022-03-05,Elazığ,10,1132
64,2022-03-06,Elazığ,12,1431
65,2022-03-07,Mardin,10,1792
66,2022-03-08,Bitlis,13,1763
67,2022-03-09,Manisa,4,1823
68,2022-03-10,Muş,14,1431
69,2022-03-11,Düzce,12,1112
70,2022-03-12,Yalova,4,1939
71,2022-03-13,Çanakkale,15,1410
72,2022-03-14,Siirt,8,1882
73,2022-03-15,Kocaeli,1,1098
74,2022-03-16,İzmir,10,1190
75,2022-03-17,Samsun,4,1503
76,2022-03-18,Bayburt,5,1836
77,2022-03-19,Van,7,1133
78,2022-03-20,Kars,10,1131
79,2022-03-21,Van,14,1284
80,2022-03-22,Kilis,7,1434
81,2022-03-23,Kırşehir,5,1937
82,2022-03-24,Tokat,16,1796
83,2022-03-25,Bolu,3,1329
84,2022-03-26,Yozgat,1,1740
85,2022-03-27,Bolu,17,1593
86,2022-03-28,Ordu,12,1083
87,2022-03-29,Kırıkkale,17,1978
88,2022-03-30,Kütahya,7,1152
89,2022-03-31,Adana,7,1672
90,2022-04-01,Erzincan,1,1655
91,2022-04-02,Ardahan,10,1582
92,2022-04-03,Çorum,6,1523
93,2022-04-04,Erzincan,6,1510
94,2022-04-05,Erzurum,2,1857
95,2022-04-06,Ordu,6,1162
96,2022-04-07,Kırklareli,4,1861
97,2022-04-08,Gaziantep,2,1832
98,2022-04-09,İçel (Mersin),12,1251
99,2022-04-10,Karabük,5,1192
100,2022-04-11,Bolu,5,1936
101,2022-04-12,Giresun,12,1677
102,2022-04-13,Kahramanmaraş,17,1324
103,2022-04-14,Artvin,2,1106
104,2022-04-15,Sivas,13,1362
105,2022-04-16,Gaziantep,4,1655
106,2022-04-17,Nevşehir,12,1633
107,2022-04-18,Kastamonu,3,1721
108,2022-04-19,Burdur,11,1049
109,2022-04-20,Karaman,12,1740
110,2022-04-21,Adana,8,1619
111,2022-04-22,Mardin,3,1853
112,2022-04-23,Çorum,5,1154
113,2022-04-24,Karaman,17,1696
114,2022-04-25,Kilis,2,1305
115,2022-04-26,Sinop,6,1593
116,2022-04-27,Aksaray,12,1833
117,2022-04-28,Bilecik,5,1609
118,2022-04-29,Tunceli,4,1430
119,2022-04-30,Amasya,11,1939
120,2022-05-01,Iğdır,15,1783
121,2022-05-02,Karaman,14,1562
122,2022-05-03,Gümüşhane,17,1566
123,2022-05-04,Erzincan,16,1351
124,2022-05-05,Gümüşhane,17,1041
125,2022-05-06,Samsun,5,1969
126,2022-05-07,Adıyaman,5,1921
127,2022-05-08,Aydın,1,1754
128,2022-05-09,Burdur,2,1079
129,2022-05-10,Rize,7,1615
130,2022-05-11,Antalya,3,1770
131,2022-05-12,Gümüşhane,12,1415
132,2022-05-13,Yalova,5,1261
133,2022-05-14,Siirt,1,1771
134,2022-05-15,Burdur,10,1823
135,2022-05-16,Konya,5,1264
136,2022-05-17,Şırnak,13,1940
137,2022-05-18,Osmaniye,12,1511
138,2022-05-19,Kırklareli,10,1567
139,2022-05-20,Erzincan,8,1084
140,2022-05-21,Erzurum,11,1834
141,2022-05-22,Bitlis,13,1788
142,2022-05-23,Sinop,1,1548
143,2022-05-24,Balıkesir,17,1989
144,2022-05-25,Elazığ,2,1706
145,2022-05-26,Konya,5,1321
146,2022-05-27,Siirt,12,1446
147,2022-05-28,İçel (Mersin),2,1407
148,2022-05-29,Yalova,5,1449
149,2022-05-30,Tokat,11,1455
150,2022-05-31,Iğdır,7,1788
151,2022-06-01,Karabük,4,1337
152,2022-06-02,Diyarbakır,17,1125
153,2022-06-03,Bolu,10,1599
154,2022-06-04,İçel (Mersin),14,1368
155,2022-06-05,Aksaray,15,1828
156,2022-06-06,Giresun,12,1525
157,2022-06-07,Bayburt,10,1264
158,2022-06-08,Afyon,13,1802
159,2022-06-09,Çorum,12,1589
160,2022-06-10,Eskişehir,6,1045
161,2022-06-11,Balıkesir,10,1034
162,2022-06-12,Bitlis,11,1829
163,2022-06-13,Muş,7,1779
164,2022-06-14,Iğdır,11,1636
165,2022-06-15,Batman,9,1372
166,2022-06-16,Bingöl,11,1254
167,2022-06-17,İçel (Mersin),16,1703
168,2022-06-18,Isparta,11,1650
169,2022-06-19,Elazığ,13,1057
170,2022-06-20,Bolu,6,1346
171,2022-06-21,Yozgat,2,1348
172,2022-06-22,Kayseri,3,1691
173,2022-06-23,Bolu,5,1863
174,2022-06-24,Tokat,16,1869
175,2022-06-25,Kars,8,1294
176,2022-06-26,Karaman,17,1371
177,2022-06-27,Iğdır,10,1199
178,2022-06-28,Kırıkkale,11,1086
179,2022-06-29,Bitlis,13,1441
180,2022-06-30,Kilis,2,1608
181,2022-07-01,Kütahya,16,1346
182,2022-07-02,İstanbul,4,1434
183,2022-07-03,Çanakkale,9,1324
184,2022-07-04,Artvin,3,1381
185,2022-07-05,Sinop,13,1486
186,2022-07-06,Sakarya,15,1093
187,2022-07-07,Manisa,6,1594
188,2022-07-08,Samsun,7,1673
189,2022-07-09,Niğde,14,1575
190,2022-07-10,Tunceli,13,1398
191,2022-07-11,Elazığ,6,1728
192,2022-07-12,Bitlis,7,1227
193,2022-07-13,Ordu,5,1652
194,2022-07-14,Kütahya,11,1174
195,2022-07-15,Düzce,7,1540
196,2022-07-16,Burdur,17,1659
197,2022-07-17,Elazığ,14,1029
198,2022-07-18,Bayburt,1,1797
199,2022-07-19,Mardin,6,1204
200,2022-07-20,Nevşehir,3,1283
201,2022-07-21,Bayburt,7,1453
202,2022-07-22,Bingöl,1,1270
203,2022-07-23,Adıyaman,16,1192
204,2022-07-24,Bingöl,13,1606
205,2022-07-25,Uşak,17,1688
206,2022-07-26,İstanbul,17,1955
207,2022-07-27,Kırklareli,1,1039
208,2022-07-28,Konya,7,1917
209,2022-07-29,Manisa,17,1057
210,2022-07-30,Kırklareli,14,1700
211,2022-07-31,Kırklareli,15,1899
212,2022-08-01,Ardahan,3,1859
213,2022-08-02,Sinop,8,1278
214,2022-08-03,İstanbul,4,1325
215,2022-08-04,Bitlis,2,1987
216,2022-08-05,Denizli,8,1099
217,2022-08-06,Siirt,15,1799
218,2022-08-07,Sivas,11,1531
219,2022-08-08,Karaman,3,1744
220,2022-08-09,Muş,11,1482
221,2022-08-10,Bitlis,17,1470
222,2022-08-11,Erzurum,2,1863
223,2022-08-12,Kütahya,14,1877
224,2022-08-13,Burdur,15,1388
225,2022-08-14,Çanakkale,9,1113
226,2022-08-15,Şırnak,10,1121
227,2022-08-16,Afyon,14,1310
228,2022-08-17,Gümüşhane,2,1746
229,2022-08-18,Kahramanmaraş,10,1442
230,2022-08-19,Hatay,9,1451
231,2022-08-20,Samsun,17,1137
232,2022-08-21,Erzincan,14,1728
233,2022-08-22,Yozgat,11,1276
234,2022-08-23,Afyon,4,1103
235,2022-08-24,Ordu,4,1808
236,2022-08-25,Manisa,6,1111
237,2022-08-26,Batman,1,1620
238,2022-08-27,Zonguldak,17,1149
239,2022-08-28,Muş,3,1757
240,2022-08-29,Kırklareli,7,1857
241,2022-08-30,Bayburt,15,1446
242,2022-08-31,Hakkari,2,1363
243,2022-09-01,Hakkari,15,1226
244,2022-09-02,Karabük,5,1466
245,2022-09-03,Aksaray,3,1397
246,2022-09-04,Kahramanmaraş,10,1171
247,2022-09-05,Trabzon,9,1453
248,2022-09-06,Ankara,4,1340
249,2022-09-07,Bilecik,3,1806
250,2022-09-08,Adıyaman,2,1501
251,2022-09-09,Erzincan,15,1450
252,2022-09-10,Bitlis,1,1945
253,2022-09-11,Kastamonu,1,1136
254,2022-09-12,Yalova,12,1765
255,2022-09-13,Iğdır,16,1390
256,2022-09-14,Kırıkkale,16,1261
257,2022-09-15,Kırşehir,16,1050
258,2022-09-16,Kars,4,1942
259,2022-09-17,Batman,10,1933
260,2022-09-18,Kayseri,6,1043
261,2022-09-19,Rize,14,1813
262,2022-09-20,Şanlıurfa,8,1280
263,2022-09-21,Ardahan,15,1152
264,2022-09-22,Mardin,7,1485
265,2022-09-23,Çanakkale,13,1096
266,2022-09-24,Çankırı,6,1848
267,2022-09-25,Mardin,12,1347
268,2022-09-26,Aydın,12,1712
269,2022-09-27,Denizli,5,1644
270,2022-09-28,Kahramanmaraş,9,1071
271,2022-09-29,İçel (Mersin),9,1216
272,2022-09-30,Bitlis,6,1488
273,2022-10-01,Bitlis,5,1775
274,2022-10-02,Isparta,14,1033
275,2022-10-03,Trabzon,6,1254
276,2022-10-04,Giresun,13,1893
277,2022-10-05,Balıkesir,3,1586
278,2022-10-06,Tunceli,2,1355
279,2022-10-07,Düzce,3,1670
280,2022-10-08,İçel (Mersin),5,1887
281,2022-10-09,Adıyaman,7,1069
282,2022-10-10,Sakarya,10,1357
283,2022-10-11,Konya,14,1951
284,2022-10-12,Niğde,16,1276
285,2022-10-13,Elazığ,17,1353
286,2022-10-14,Gaziantep,15,1901
287,2022-10-15,Aksaray,17,1491
288,2022-10-16,Afyon,2,1142
289,2022-10-17,Rize,11,1535
290,2022-10-18,Artvin,11,1567
291,2022-10-19,Ağrı,10,1860
292,2022-10-20,İzmir,8,1772
293,2022-10-21,Batman,17,1372
294,2022-10-22,Ankara,16,1493
295,2022-10-23,Manisa,16,1327
296,2022-10-24,Karaman,4,1650
297,2022-10-25,Erzurum,6,1749
298,2022-10-26,Sakarya,8,1608
299,2022-10-27,Niğde,2,1577
300,2022-10-28,Yozgat,16,1176
301,2022-10-29,Gümüşhane,11,1361
302,2022-10-30,Kırklareli,13,1439
303,2022-10-31,Isparta,1,1124
304,2022-11-01,Gaziantep,12,1083
305,2022-11-02,Iğdır,8,1289
306,2022-11-03,Samsun,16,1317
307,2022-11-04,Eskişehir,16,1274
308,2022-11-05,Muğla,14,1849
309,2022-11-06,Denizli,16,1441
310,2022-11-07,Adana,15,1930
311,2022-11-08,Niğde,12,1981
312,2022-11-09,Bitlis,15,1327
313,2022-11-10,Kahramanmaraş,2,1398
314,2022-11-11,İstanbul,3,1526
315,2022-11-12,Çankırı,16,1531
316,2022-11-13,Antalya,4,1236
317,2022-11-14,Trabzon,6,1312
318,2022-11-15,Hatay,15,1454
319,2022-11-16,Hatay,6,1798
320,2022-11-17,Bartın,11,1329
321,2022-11-18,Karabük,16,1488
322,2022-11-19,Burdur,9,1892
323,2022-11-20,Trabzon,6,1243
324,2022-11-21,Karaman,1,1630
325,2022-11-22,Niğde,5,1675
326,2022-11-23,Edirne,3,1386
327,2022-11-24,Kütahya,8,1768
328,2022-11-25,Balıkesir,6,1421
329,2022-11-26,Bursa,9,1929
330,2022-11-27,Bartın,6,1850
331,2022-11-28,Adana,15,1217
332,2022-11-29,Erzincan,10,1346
333,2022-11-30,Trabzon,16,1499
334,2022-12-01,Samsun,2,1043
335,2022-12-02,Bingöl,14,1059
336,2022-12-03,Bitlis,6,1681
337,2022-12-04,Yalova,9,1888
338,2022-12-05,Osmaniye,12,1390
339,2022-12-06,Konya,14,1305
340,2022-12-07,Yozgat,17,1955
341,2022-12-08,Bartın,6,1222
342,2022-12-09,Uşak,11,1797
343,2022-12-10,Manisa,16,1116
344,2022-12-11,Osmaniye,6,1374
345,2022-12-12,Düzce,3,1211
346,2022-12-13,Bartın,2,1034
347,2022-12-14,Muş,8,1576
348,2022-12-15,Bayburt,6,1266
349,2022-12-16,İstanbul,1,1197
350,2022-12-17,Eskişehir,13,1278
351,2022-12-18,Trabzon,7,1457
352,2022-12-19,Ağrı,14,1658
353,2022-12-20,Niğde,12,1966
354,2022-12-21,Erzincan,14,1826
355,2022-12-22,Gümüşhane,5,1780
356,2022-12-23,Gaziantep,14,1176
357,2022-12-24,Aydın,1,1228
358,2022-12-25,Malatya,1,1951
359,2022-12-26,Tekirdağ,10,1948
360,2022-12-27,Erzurum,17,1125
361,2022-12-28,Kayseri,3,1419
362,2022-12-29,Kırıkkale,4,1625
363,2022-12-30,Aksaray,11,1962
